// Jest Snapshot v1, https://goo.gl/fbAQLP

exports[`should display just the upload form if no header image is known yet 1`] = `
<div>
  <p
    className="box has-text-centered"
  >
    <img
      alt="Your uploaded header image"
      src={true}
    />
  </p>
  <form
    onSubmit={[Function]}
  >
    <div
      className="field"
    >
      <div
        className="file is-fullwidth has-name"
      >
        <label
          className="file-label"
        >
          <input
            accept="image/png, image/jpeg"
            className="file-input"
            name="header"
            onChange={[Function]}
            type="file"
          />
          <span
            className="file-cta"
          >
            <span
              className="file-icon"
            >
              <img
                alt=""
                src={Object {}}
              />
            </span>
            <span
              className="file-label"
            >
              Select an image…
            </span>
          </span>
          <span
            className="file-name"
          />
        </label>
      </div>
      <p
        className="help"
      >
        Recommended size: 400×2000 pixels.
      </p>
    </div>
    <div
      className="field is-grouped is-grouped-right"
    >
      <div
        className="control"
      >
        <button
          className="button is-link "
          disabled={true}
          type="submit"
        >
          Upload
        </button>
      </div>
    </div>
  </form>
</div>
`;
